Chapter 2 · TWIST
…
In this chapter we will try and calculate the returns of individual stocks. We will calculate returns for the FAANG stocks.

First we will calculate returns for single stock -> Netflix

# We will use the Tidyquant package

netflix <- tq_get("NFLX",
                  from = '2010-01-01',
                  get = "stock.prices")
netflix

## # A tibble: 2,163 x 7
##    date        open  high   low close   volume adjusted
##    <date>     <dbl> <dbl> <dbl> <dbl>    <dbl>    <dbl>
##  1 2010-01-04  7.93  7.96  7.57  7.64 17239600     7.64
##  2 2010-01-05  7.65  7.66  7.26  7.36 23753100     7.36
##  3 2010-01-06  7.36  7.67  7.20  7.62 23290400     7.62
##  4 2010-01-07  7.73  7.76  7.46  7.49  9955400     7.49
##  5 2010-01-08  7.50  7.74  7.47  7.61  8180900     7.61
##  6 2010-01-11  7.66  7.70  7.53  7.60  6783700     7.60
##  7 2010-01-12  7.53  7.58  7.45  7.48  6330100     7.48
##  8 2010-01-13  7.61  7.75  7.56  7.71 14422100     7.71
##  9 2010-01-14  7.52  7.58  7.27  7.28 17685500     7.28
## 10 2010-01-15  7.25  7.41  7.23  7.28 13031200     7.28
## # ... with 2,153 more rows
…
